{
	"page": 1,
	"total_results": 10000,
	"total_pages": 500,
	"results": [{
			"popularity": 289.444,
			"vote_count": 424,
			"video": false,
			"poster_path": "/a4BfxRK8dBgbQqbRxPs8kmLd8LG.jpg",
			"id": 429203,
			"adult": false,
			"backdrop_path": "/8bRIfPGDnmWgdy65LO8xtdcFmFP.jpg",
			"original_language": "en",
			"original_title": "The Old Man & the Gun",
			"genre_ids": [
				35,
				80,
				18
			],
			"title": "The Old Man & the Gun",
			"vote_average": 6.4,
			"overview": "The true story of Forrest Tucker, from his audacious escape from San Quentin at the age of 70 to an unprecedented string of heists that confounded authorities and enchanted the public. Wrapped up in the pursuit are a detective, who becomes captivated with Forrest’s commitment to his craft, and a woman, who loves him in spite of his chosen profession.",
			"release_date": "2018-09-28"
		},
		{
			"popularity": 205.507,
			"vote_count": 2082,
			"video": false,
			"poster_path": "/2bXbqYdUdNVa8VIWXVfclP2ICtT.jpg",
			"id": 420818,
			"adult": false,
			"backdrop_path": "/1TUg5pO1VZ4B0Q1amk3OlXvlpXV.jpg",
			"original_language": "en",
			"original_title": "The Lion King",
			"genre_ids": [
				28,
				12,
				16,
				18,
				10751
			],
			"title": "The Lion King",
			"vote_average": 7.2,
			"overview": "Simba idolises his father, King Mufasa, and takes to heart his own royal destiny. But not everyone in the kingdom celebrates the new cub's arrival. Scar, Mufasa's brother—and former heir to the throne—has plans of his own. The battle for Pride Rock is ravaged with betrayal, tragedy and drama, ultimately resulting in Simba's exile. With help from a curious pair of newfound friends, Simba will have to figure out how to grow up and take back what is rightfully his.",
			"release_date": "2019-07-19"
		},
		{
			"popularity": 198.813,
			"vote_count": 2094,
			"video": false,
			"poster_path": "/ziEuG1essDuWuC5lpWUaw1uXY2O.jpg",
			"id": 458156,
			"adult": false,
			"backdrop_path": "/vVpEOvdxVBP2aV166j5Xlvb5Cdc.jpg",
			"original_language": "en",
			"original_title": "John Wick: Chapter 3 – Parabellum",
			"genre_ids": [
				28,
				80,
				53
			],
			"title": "John Wick: Chapter 3 – Parabellum",
			"vote_average": 7.1,
			"overview": "Super-assassin John Wick returns with a $14 million price tag on his head and an army of bounty-hunting killers on his trail. After killing a member of the shadowy international assassin’s guild, the High Table, John Wick is excommunicado, but the world’s most ruthless hit men and women await his every turn.",
			"release_date": "2019-05-17"
		},
		{
			"popularity": 197.046,
			"vote_count": 838,
			"video": false,
			"poster_path": "/keym7MPn1icW1wWfzMnW3HeuzWU.jpg",
			"id": 384018,
			"adult": false,
			"backdrop_path": "/hpgda6P9GutvdkDX5MUJ92QG9aj.jpg",
			"original_language": "en",
			"original_title": "Fast & Furious Presents: Hobbs & Shaw",
			"genre_ids": [
				28
			],
			"title": "Fast & Furious Presents: Hobbs & Shaw",
			"vote_average": 6.5,
			"overview": "A spinoff of The Fate of the Furious, focusing on Johnson's US Diplomatic Security Agent Luke Hobbs forming an unlikely alliance with Statham's Deckard Shaw.",
			"release_date": "2019-08-02"
		},
		{
			"popularity": 162.123,
			"vote_count": 10,
			"video": false,
			"poster_path": "/kTca5fpKhFOKIiG0tz8tynhsWs5.jpg",
			"id": 593961,
			"adult": false,
			"backdrop_path": "/foMDjFHrTrex6Rr6bApB8TbWlie.jpg",
			"original_language": "tl",
			"original_title": "Hello, Love, Goodbye",
			"genre_ids": [
				18,
				10749
			],
			"title": "Hello, Love, Goodbye",
			"vote_average": 7.3,
			"overview": "A love story of Joy and Ethan, Filipino workers based in Hong Kong. Ethan, a bartender, is keen on romantically pursuing Joy, a domestic helper who is wholly dedicated to providing for her family.",
			"release_date": "2019-07-31"
		},
		{
			"popularity": 158.901,
			"vote_count": 2898,
			"video": false,
			"poster_path": "/3iYQTLGoy7QnjcUYRJy4YrAgGvp.jpg",
			"id": 420817,
			"adult": false,
			"backdrop_path": "/v4yVTbbl8dE1UP2dWu5CLyaXOku.jpg",
			"original_language": "en",
			"original_title": "Aladdin",
			"genre_ids": [
				12,
				35,
				14,
				10749,
				10751
			],
			"title": "Aladdin",
			"vote_average": 7.1,
			"overview": "A kindhearted street urchin named Aladdin embarks on a magical adventure after finding a lamp that releases a wisecracking genie while a power-hungry Grand Vizier vies for the same lamp that has the power to make their deepest wishes come true.",
			"release_date": "2019-05-24"
		},
		{
			"popularity": 137.692,
			"vote_count": 91,
			"video": false,
			"poster_path": "/fapXd3v9qTcNBTm39ZC4KUVQDNf.jpg",
			"id": 423204,
			"adult": false,
			"backdrop_path": "/k2WyDw2NTUIWnuEs5gT7wgrCQg6.jpg",
			"original_language": "en",
			"original_title": "Angel Has Fallen",
			"genre_ids": [
				28
			],
			"title": "Angel Has Fallen",
			"vote_average": 5.5,
			"overview": "Secret Service Agent Mike Banning is framed for the attempted assassination of the President and must evade his own agency and the FBI as he tries to uncover the real threat.",
			"release_date": "2019-08-23"
		},
		{
			"popularity": 131.636,
			"vote_count": 1167,
			"video": false,
			"poster_path": "/pU3bnutJU91u3b4IeRPQTOP8jhV.jpg",
			"id": 373571,
			"adult": false,
			"backdrop_path": "/cNt14e43I2DDW6Xd9zFhrP8eOcA.jpg",
			"original_language": "en",
			"original_title": "Godzilla: King of the Monsters",
			"genre_ids": [
				28,
				878
			],
			"title": "Godzilla: King of the Monsters",
			"vote_average": 6.2,
			"overview": "Follows the heroic efforts of the crypto-zoological agency Monarch as its members face off against a battery of god-sized monsters, including the mighty Godzilla, who collides with Mothra, Rodan, and his ultimate nemesis, the three-headed King Ghidorah. When these ancient super-species - thought to be mere myths - rise again, they all vie for supremacy, leaving humanity's very existence hanging in the balance.",
			"release_date": "2019-05-31"
		},
		{
			"popularity": 126.912,
			"vote_count": 7950,
			"video": false,
			"poster_path": "/jpfkzbIXgKZqCZAkEkFH2VYF63s.jpg",
			"id": 920,
			"adult": false,
			"backdrop_path": "/a1MlbLBk5Sy6YvMbSuKfwGlDVlb.jpg",
			"original_language": "en",
			"original_title": "Cars",
			"genre_ids": [
				12,
				16,
				35,
				10751
			],
			"title": "Cars",
			"vote_average": 6.7,
			"overview": "Lightning McQueen, a hotshot rookie race car driven to succeed, discovers that life is about the journey, not the finish line, when he finds himself unexpectedly detoured in the sleepy Route 66 town of Radiator Springs. On route across the country to the big Piston Cup Championship in California to compete against two seasoned pros, McQueen gets to know the town's offbeat characters.",
			"release_date": "2006-06-09"
		},
		{
			"popularity": 122.274,
			"vote_count": 1001,
			"video": false,
			"poster_path": "/dPrUPFcgLfNbmDL8V69vcrTyEfb.jpg",
			"id": 479455,
			"adult": false,
			"backdrop_path": "/2FYzxgLNuNVwncilzUeCGbOQzP7.jpg",
			"original_language": "en",
			"original_title": "Men in Black: International",
			"genre_ids": [
				28,
				12,
				35,
				878
			],
			"title": "Men in Black: International",
			"vote_average": 5.9,
			"overview": "The Men in Black have always protected the Earth from the scum of the universe. In this new adventure, they tackle their biggest, most global threat to date: a mole in the Men in Black organization.",
			"release_date": "2019-06-14"
		},
		{
			"popularity": 112.544,
			"vote_count": 21,
			"video": false,
			"poster_path": "/MBiKqTsouYqAACLYNDadsjhhC0.jpg",
			"id": 486589,
			"adult": false,
			"backdrop_path": "/bga3i5jcejBekr2FCGJga1fYCh.jpg",
			"original_language": "en",
			"original_title": "Red Shoes and the Seven Dwarfs",
			"genre_ids": [
				16,
				10749
			],
			"title": "Red Shoes and the Seven Dwarfs",
			"vote_average": 5.2,
			"overview": "Princes who have been turned into Dwarfs seek the red shoes of a lady in order to break the spell, although it will not be easy.",
			"release_date": "2019-08-01"
		},
		{
			"popularity": 108.459,
			"vote_count": 9001,
			"video": false,
			"poster_path": "/or06FN3Dka5tukK1e9sl16pB3iy.jpg",
			"id": 299534,
			"adult": false,
			"backdrop_path": "/7RyHsO4yDXtBv1zUU3mTpHeQ0d5.jpg",
			"original_language": "en",
			"original_title": "Avengers: Endgame",
			"genre_ids": [
				28,
				12,
				878
			],
			"title": "Avengers: Endgame",
			"vote_average": 8.4,
			"overview": "After the devastating events of Avengers: Infinity War, the universe is in ruins due to the efforts of the Mad Titan, Thanos. With the help of remaining allies, the Avengers must assemble once more in order to undo Thanos' actions and restore order to the universe once and for all, no matter what consequences may be in store.",
			"release_date": "2019-04-26"
		},
		{
			"popularity": 100.28,
			"vote_count": 32,
			"video": false,
			"poster_path": "/9Z2qT9iZYLzzsCSYu7A4SEQsKX0.jpg",
			"id": 571627,
			"adult": false,
			"backdrop_path": "/4MDYpCwqSVO5RcTiZ4GEfePzDdl.jpg",
			"original_language": "ko",
			"original_title": "사자",
			"genre_ids": [
				28,
				27,
				9648
			],
			"title": "The Divine Fury",
			"vote_average": 4,
			"overview": "Yong-hu, a world champion martial artist who believes in no God, only himself, suddenly develops stigmata on his palms. Visiting a church in hopes of healing the stigmata, he ends up saving Father Ahn, who falls into danger while performing an exorcism. In this way he learns of the power of the stigmata. As time passes Yong-hu accepts his new calling and begins saving people who are possessed by demons, but then he must prepare for a final confrontation with the evil Jisin, who ensnares people with the power of the devil.",
			"release_date": "2019-07-31"
		},
		{
			"popularity": 99.51,
			"vote_count": 3206,
			"video": false,
			"poster_path": "/lcq8dVxeeOqHvvgcte707K0KVx5.jpg",
			"id": 429617,
			"adult": false,
			"backdrop_path": "/dihW2yTsvQlust7mSuAqJDtqW7k.jpg",
			"original_language": "en",
			"original_title": "Spider-Man: Far from Home",
			"genre_ids": [
				28,
				12,
				878
			],
			"title": "Spider-Man: Far from Home",
			"vote_average": 7.7,
			"overview": "Peter Parker and his friends go on a summer trip to Europe. However, they will hardly be able to rest - Peter will have to agree to help Nick Fury uncover the mystery of creatures that cause natural disasters and destruction throughout the continent.",
			"release_date": "2019-07-02"
		},
		{
			"popularity": 95.436,
			"vote_count": 112,
			"video": false,
			"poster_path": "/jIthqo2tQmW8TFN1fYpF8FmVL0o.jpg",
			"id": 521777,
			"adult": false,
			"backdrop_path": "/6Xsz9KHQmCcIcj3CoWQq5eLtVoT.jpg",
			"original_language": "en",
			"original_title": "Good Boys",
			"genre_ids": [
				35
			],
			"title": "Good Boys",
			"vote_average": 6.9,
			"overview": "A group of young boys on the cusp of becoming teenagers embark on an epic quest in the San Fernando Valley to fix their broken toy before their parents get home.",
			"release_date": "2019-08-16"
		},
		{
			"popularity": 85.774,
			"vote_count": 469,
			"video": false,
			"poster_path": "/nYcaCNkB4EgVyvrXxxbklefDrGL.jpg",
			"id": 412117,
			"adult": false,
			"backdrop_path": "/etaok7q2E5tV36oXe7GQzhUQ4fX.jpg",
			"original_language": "en",
			"original_title": "The Secret Life of Pets 2",
			"genre_ids": [
				12,
				16,
				35,
				10751
			],
			"title": "The Secret Life of Pets 2",
			"vote_average": 6.6,
			"overview": "Max the terrier must cope with some major life changes when his owner gets married and has a baby. When the family takes a trip to the countryside, nervous Max has numerous run-ins with canine-intolerant cows, hostile foxes and a scary turkey. Luckily for Max, he soon catches a break when he meets Rooster, a gruff farm dog who tries to cure the lovable pooch of his neuroses.",
			"release_date": "2019-06-07"
		},
		{
			"popularity": 76.654,
			"vote_count": 25,
			"video": false,
			"poster_path": "/vVYU0x9FRpiJNX7c54ciFnRBVYG.jpg",
			"id": 441282,
			"adult": false,
			"backdrop_path": "/6rJAeP8xlq0bHUdCNg5epBvrFVa.jpg",
			"original_language": "en",
			"original_title": "Night Hunter",
			"genre_ids": [
				80,
				9648,
				53
			],
			"title": "Night Hunter",
			"vote_average": 7.5,
			"overview": "A police task force traps an online predator, only to discover that the depth of his crimes goes far beyond anything they had anticipated.",
			"release_date": "2019-09-06"
		},
		{
			"popularity": 75.798,
			"vote_count": 15011,
			"video": false,
			"poster_path": "/7WsyChQLEftFiDOVTGkv3hFpyyt.jpg",
			"id": 299536,
			"adult": false,
			"backdrop_path": "/bOGkgRGdhrBYJSLpXaxhXVstddV.jpg",
			"original_language": "en",
			"original_title": "Avengers: Infinity War",
			"genre_ids": [
				28,
				12,
				878
			],
			"title": "Avengers: Infinity War",
			"vote_average": 8.3,
			"overview": "As the Avengers and their allies have continued to protect the world from threats too large for any one hero to handle, a new danger has emerged from the cosmic shadows: Thanos. A despot of intergalactic infamy, his goal is to collect all six Infinity Stones, artifacts of unimaginable power, and use them to inflict his twisted will on all of reality. Everything the Avengers have fought for has led up to this moment - the fate of Earth and existence itself has never been more uncertain.",
			"release_date": "2018-04-27"
		},
		{
			"popularity": 75.606,
			"vote_count": 9,
			"video": false,
			"poster_path": "/wF6SNPcUrTKFA4fOFfukm7zQ3ob.jpg",
			"id": 474350,
			"adult": false,
			"backdrop_path": "/eLuFZJjdv0xlPBSBp2gclv0NLaB.jpg",
			"original_language": "en",
			"original_title": "It: Chapter Two",
			"genre_ids": [
				27
			],
			"title": "It: Chapter Two",
			"vote_average": 10,
			"overview": "27 years after overcoming the malevolent supernatural entity Pennywise, the former members of the Losers' Club, who have grown up and moved away from Derry, are brought back together by a devastating phone call.",
			"release_date": "2019-09-06"
		},
		{
			"popularity": 75.532,
			"vote_count": 59,
			"video": false,
			"poster_path": "/4tS0iyKQBDFqVpVcH21MSJwXZdq.jpg",
			"id": 390634,
			"adult": false,
			"backdrop_path": "/jFIXVCCGvS20mIFXqDAlVR5KXew.jpg",
			"original_language": "ja",
			"original_title": "劇場版 Fate／stay night [Heaven's Feel] II. lost butterfly",
			"genre_ids": [
				28,
				12,
				16,
				14
			],
			"title": "Fate/stay night: Heaven’s Feel II. lost butterfly",
			"vote_average": 5.4,
			"overview": "Theatrical-release adaptation of the visual novel \"Fate/stay night\", following the third and final route. (Part 2 of a trilogy.)",
			"release_date": "2019-01-12"
		}
	]
}
