{
    "page": 1,
    "total_results": 19847,
    "total_pages": 993,
    "results": [
        {
            "vote_count": 1936,
            "id": 348350,
            "video": false,
            "vote_average": 6.7,
            "title": "Solo: A Star Wars Story",
            "popularity": 245.841,
            "poster_path": "/3IGbjc5ZC5yxim5W0sFING2kdcz.jpg",
            "original_language": "en",
            "original_title": "Solo: A Star Wars Story",
            "genre_ids": [
                28,
                12,
                878
            ],
            "backdrop_path": "/96B1qMN9RxrAFu6uikwFhQ6N6J9.jpg",
            "adult": false,
            "overview": "Through a series of daring escapades deep within a dark and dangerous criminal underworld, Han Solo meets his mighty future copilot Chewbacca and encounters the notorious gambler Lando Calrissian.",
            "release_date": "2018-05-15"
        },
        {
            "vote_count": 820,
            "id": 439079,
            "video": false,
            "vote_average": 5.9,
            "title": "The Nun",
            "popularity": 205.728,
            "poster_path": "/sFC1ElvoKGdHJIWRpNB3xWJ9lJA.jpg",
            "original_language": "en",
            "original_title": "The Nun",
            "genre_ids": [
                27,
                9648,
                53
            ],
            "backdrop_path": "/fgsHxz21B27hOOqQBiw9L6yWcM7.jpg",
            "adult": false,
            "overview": "When a young nun at a cloistered abbey in Romania takes her own life, a priest with a haunted past and a novitiate on the threshold of her final vows are sent by the Vatican to investigate. Together they uncover the order’s unholy secret. Risking not only their lives but their faith and their very souls, they confront a malevolent force in the form of the same demonic nun that first terrorized audiences in “The Conjuring 2,” as the abbey becomes a horrific battleground between the living and the damned.",
            "release_date": "2018-09-05"
        },
        {
            "vote_count": 30,
            "id": 135870,
            "video": false,
            "vote_average": 3.9,
            "title": "Rebel",
            "popularity": 188.401,
            "poster_path": "/dNTzorrVmcJ25fUGzs9FfkoXb0P.jpg",
            "original_language": "te",
            "original_title": "రెబెల్",
            "genre_ids": [
                28
            ],
            "backdrop_path": "/yCGEkEqy7uOo7NwlbgOzGrI8i43.jpg",
            "adult": false,
            "overview": "Rebel is a romantic action revenge drama, which revolves around the story of a happy-go-lucky guy. The hero (Prabhas) is the son of a good-natured mafia don (Krishnam Raju). The hero becomes Rebel after his father is killed. How he takes revenge upon the people, who killed his father, will form the second half of the movie. Apart from directing, Raghava Lawrence also handles the choreography, screenplay and music direction for the film. The film is being produced by J. Bhaghawan and J. Pulla Rao under Sri Balaji Cine Media banner.",
            "release_date": "2012-09-28"
        },
        {
            "vote_count": 8402,
            "id": 299536,
            "video": false,
            "vote_average": 8.3,
            "title": "Avengers: Infinity War",
            "popularity": 172.725,
            "poster_path": "/7WsyChQLEftFiDOVTGkv3hFpyyt.jpg",
            "original_language": "en",
            "original_title": "Avengers: Infinity War",
            "genre_ids": [
                12,
                878,
                28
            ],
            "backdrop_path": "/lmZFxXgJE3vgrciwuDib0N8CfQo.jpg",
            "adult": false,
            "overview": "As the Avengers and their allies have continued to protect the world from threats too large for any one hero to handle, a new danger has emerged from the cosmic shadows: Thanos. A despot of intergalactic infamy, his goal is to collect all six Infinity Stones, artifacts of unimaginable power, and use them to inflict his twisted will on all of reality. Everything the Avengers have fought for has led up to this moment - the fate of Earth and existence itself has never been more uncertain.",
            "release_date": "2018-04-25"
        },
        {
            "vote_count": 3657,
            "id": 351286,
            "video": false,
            "vote_average": 6.5,
            "title": "Jurassic World: Fallen Kingdom",
            "popularity": 165.419,
            "poster_path": "/c9XxwwhPHdaImA2f1WEfEsbhaFB.jpg",
            "original_language": "en",
            "original_title": "Jurassic World: Fallen Kingdom",
            "genre_ids": [
                28,
                12,
                878
            ],
            "backdrop_path": "/3s9O5af2xWKWR5JzP2iJZpZeQQg.jpg",
            "adult": false,
            "overview": "Three years after the demise of Jurassic World, a volcanic eruption threatens the remaining dinosaurs on the isla Nublar, so Claire Dearing, the former park manager, recruits Owen Grady to help prevent the extinction of the dinosaurs once again.",
            "release_date": "2018-06-06"
        }
    ]
}
