
{
    "page": 1,
    "total_results": 106,
    "total_pages": 6,
    "results": [
        {
            "vote_count": 3177,
            "id": 268,
            "video": false,
            "vote_average": 7.1,
            "title": "Batman",
            "popularity": 14.282,
            "poster_path": "/kBf3g9crrADGMc2AMAMlLBgSm2h.jpg",
            "original_language": "en",
            "original_title": "Batman",
            "genre_ids": [
                14,
                28
            ],
            "backdrop_path": "/2blmxp2pr4BhwQr74AdCfwgfMOb.jpg",
            "adult": false,
            "overview": "The Dark Knight of Gotham City begins his war on crime with his first major enemy being the clownishly homicidal Joker, who has seized control of Gotham's underworld.",
            "release_date": "1989-06-23"
        },
        {
            "vote_count": 313,
            "id": 2661,
            "video": false,
            "vote_average": 6.2,
            "title": "Batman",
            "popularity": 6.713,
            "poster_path": "/udDVJXtAFsQ8DimrXkVFqy4DGEQ.jpg",
            "original_language": "en",
            "original_title": "Batman",
            "genre_ids": [
                10751,
                12,
                35,
                878,
                80
            ],
            "backdrop_path": "/5gcdof2PKH1emllBdN1VXU706IP.jpg",
            "adult": false,
            "overview": "The Dynamic Duo faces four super-villains who plan to hold the world for ransom with the help of a secret invention that instantly dehydrates people.",
            "release_date": "1966-07-30"
        },
        {
            "vote_count": 10402,
            "id": 272,
            "video": false,
            "vote_average": 7.6,
            "title": "Batman Begins",
            "popularity": 26.352,
            "poster_path": "/dr6x4GyyegBWtinPBzipY02J2lV.jpg",
            "original_language": "en",
            "original_title": "Batman Begins",
            "genre_ids": [
                28,
                80,
                18
            ],
            "backdrop_path": "/65JWXDCAfwHhJKnDwRnEgVB411X.jpg",
            "adult": false,
            "overview": "Driven by tragedy, billionaire Bruce Wayne dedicates his life to uncovering and defeating the corruption that plagues his home, Gotham City.  Unable to work within the system, he instead creates a new identity, a symbol of fear for the criminal underworld - The Batman.",
            "release_date": "2005-06-10"
        },
        {
            "vote_count": 2580,
            "id": 364,
            "video": false,
            "vote_average": 6.8,
            "title": "Batman Returns",
            "popularity": 15.902,
            "poster_path": "/jX5THE1yW3zTdeD9dupcIyQvKiG.jpg",
            "original_language": "en",
            "original_title": "Batman Returns",
            "genre_ids": [
                28,
                14
            ],
            "backdrop_path": "/wNIE5dpkiHU2csDRptMutFjAGiV.jpg",
            "adult": false,
            "overview": "Having defeated the Joker, Batman now faces the Penguin - a warped and deformed individual who is intent on being accepted into Gotham society. Crooked businessman Max Schreck is coerced into helping him become Mayor of Gotham and they both attempt to expose Batman in a different light. Selina Kyle, Max's secretary, is thrown from the top of a building and is transformed into Catwoman - a mysterious figure who has the same personality disorder as Batman. Batman must attempt to clear his name, all the time deciding just what must be done with the Catwoman.",
            "release_date": "1992-06-19"
        },
        {
            "vote_count": 2182,
            "id": 415,
            "video": false,
            "vote_average": 4.2,
            "title": "Batman & Robin",
            "popularity": 14.351,
            "poster_path": "/79AYCcxw3kSKbhGpx1LiqaCAbwo.jpg",
            "original_language": "en",
            "original_title": "Batman & Robin",
            "genre_ids": [
                878,
                28,
                14,
                35
            ],
            "backdrop_path": "/39jbxGwfR4wHBV7apo3JiNdHDHq.jpg",
            "adult": false,
            "overview": "Along with crime-fighting partner Robin and new recruit Batgirl, Batman battles the dual threat of frosty genius Mr. Freeze and homicidal horticulturalist Poison Ivy. Freeze plans to put Gotham City on ice, while Ivy tries to drive a wedge between the dynamic duo.",
            "release_date": "1997-06-20"
        }
    ]
}
